{
    "100021": "Razstavišče ",
    "101011": "Hranilniška ",
    "101021": "Parmova ",
    "101031": "Bežigrad ",
    "101051": "Astra ",
    "101061": "Bratov Židan ",
    "102011": "Samova ",
    "102021": "Topniška ",
    "102031": "Gasilska brigada ",
    "102041": "Stadion ",
    "102051": "Podmilščakova ",
    "102061": "Mostovna ",
    "102071": "Vodovodna ",
    "102081": "Mercator ",
    "102091": "Kardeljeva ploščad ",
    "103011": "Toplarna ",
    "103021": "Brinje ",
    "103031": "AMZS ",
    "103041": "Puhova ",
    "103051": "Tovarna Lek ",
    "103061": "Pohorskega bataljona ",
    "103071": "Smelt ",
    "103081": "N. STOŽICE P+R ",
    "103091": "Gorjančeva ",
    "103101": "Stožice ",
    "103111": "7. septembra ",
    "103121": "Čerinova ",
    "103131": "Ruski car ",
    "103161": "Maroltova ",
    "103173": "C. STOŽICE P+R ",
    "103191": "Božičeva ",
    "103201": "LITOSTROJ ",
    "103203": "Litostroj ",
    "103211": "Baragova ",
    "103231": "I.C. Šiška ",
    "104011": "SAVLJE ",
    "104021": "Kališnikov trg ",
    "104031": "Ježica ",
    "104033": "JEŽICA ",
    "104051": "Sava ",
    "104061": "Elma ",
    "104071": "Šlandrova ",
    "104081": "Obrtna cona ",
    "104091": "Cesta na Brod ",
    "104101": "Kolodvor Črnuče ",
    "104111": "Rogovilc ",
    "104113": "Primožičeva ",
    "104121": "Polanškova ",
    "104131": "Pot v Smrečje ",
    "104141": "Pot v Hrastovec ",
    "104151": "OŠ Maksa Pečarja ",
    "104161": "ČRNUČE ",
    "104171": "Zasavska ",
    "104181": "Ježa ",
    "104191": "Šmartno ",
    "104193": "Šmartno pod Š.G. ",
    "104201": "Zg. Gameljne ",
    "104211": "Rašica ",
    "104221": "GAMELJNE ",
    "104321": "JEŽICA P+R ",
    "104331": "Sp. Gameljne 1 ",
    "104341": "Sp. Gameljne 2 ",
    "104351": "Sp. Gameljne 3 ",
    "104361": "GD Gameljne ",
    "201011": "ŽELEZNA ",
    "202011": "Viadukt ",
    "202021": "Prekmurska ",
    "202031": "Savske stolpnice ",
    "202041": "Savsko naselje ",
    "202051": "ZELENA JAMA ",
    "202061": "Žale ",
    "202091": "Središka ",
    "203011": "Pokopališka ",
    "203021": "Rožičeva ",
    "203031": "Tomačevska ",
    "203041": "Šola Jarše ",
    "203051": "Kavčičeva ",
    "203061": "Tovorni kolodvor ",
    "203071": "Nove Žale ",
    "203081": "TOMAČEVO ",
    "203091": "Jarše ",
    "203101": "Kodrova ",
    "203111": "BTC-uprava ",
    "203121": "BTC-tržnica ",
    "203131": "BTC-Kolosej ",
    "203141": "BTC-Emporium ",
    "203151": "Žito ",
    "203161": "Nove Jarše ",
    "203171": "NOVE JARŠE ",
    "203181": "Bratislavska ",
    "203191": "Yulon ",
    "203211": "Kranjčeva ",
    "203231": "Na Žalah ",
    "203241": "BTC-Merkur ",
    "203251": "BTC-ATLANTIS ",
    "204011": "Leskoškova ",
    "204021": "GZL ",
    "204031": "Rog ",
    "204041": "Letališka ",
    "204051": "LETALIŠKA ",
    "204061": "Hrastje ",
    "204071": "Sneberje ",
    "204081": "ZADOBROVA ",
    "204083": "Zadobrova ",
    "204101": "Novo Polje ",
    "204111": "Slovenijales ",
    "204121": "BRNČIČEVA ",
    "204131": "Nadgorica ",
    "204141": "Belinka ",
    "204151": "Šentjakob ",
    "204153": "Šentjakob ",
    "204161": "Reaktor ",
    "204171": "BERIČEVO ",
    "204181": "Center Zalog ",
    "204191": "Zeleni gaj ",
    "204201": "Saturnus ",
    "204211": "ZALOG ",
    "204221": "Podgorica ",
    "204231": "DRAGOMELJ ",
    "204251": "Trbeže ",
    "300011": "Kolodvor ",
    "300013": "Ljubljana AP ",
    "300015": "KOLODVOR ",
    "301011": "Friškovec ",
    "303011": "Tržnica Moste ",
    "303021": "Zaloška ",
    "303041": "ŠTEPANJSKO NAS. ",
    "303043": "ŠTEPANJSKO NAS. ",
    "303051": "Pot na Fužine ",
    "303061": "Archinetova ",
    "303071": "Brodarjev trg ",
    "304011": "Preglov trg ",
    "304021": "Osenjakova ",
    "304031": "Rusjanov trg ",
    "304041": "Chengdujska ",
    "304051": "FUŽINE P+R ",
    "304061": "Studenec ",
    "304071": "Polje ",
    "304081": "Polje-kolodvor ",
    "304091": "Cesta na Vevče ",
    "304101": "VEVČE ",
    "304103": "Vevče ",
    "304111": "Petrol ",
    "304121": "Vevče Papirnica ",
    "304131": "Silos ",
    "304141": "ZD Polje ",
    "402011": "Hrvatski trg ",
    "402021": "Poliklinika ",
    "402031": "Klinični center ",
    "402041": "Bolnica ",
    "402051": "Glonarjeva ",
    "402061": "Gornje Poljane ",
    "403011": "Jana Husa ",
    "403021": "Kodeljevo ",
    "403023": "Kodeljevo ",
    "403031": "Pod Golovcem ",
    "403041": "Štepanja vas ",
    "403043": "Štepanja vas ",
    "403051": "Emona ",
    "403061": "Rast ",
    "403071": "Bilečanska ",
    "404011": "Hrušica ",
    "404021": "Cesta v Bizovik ",
    "404031": "Dobrunje ",
    "404041": "Pošta Dobrunje ",
    "404051": "KPL ",
    "404061": "Zadvor ",
    "404071": "Cesta v Zavoglje ",
    "404081": "Križišče Sostro ",
    "404083": "Križišče Sostro ",
    "404091": "SOSTRO ",
    "404093": "Sostro ",
    "404101": "Krožna pot ",
    "404111": "Hruševska ",
    "404121": "Bizovik ",
    "404131": "Dobrunje-2 ",
    "404141": "Pod Urhom ",
    "404151": "Zadvor-2 ",
    "404161": "OŠ Sostro ",
    "404171": "Pod Sivnikom ",
    "405011": "Javor ",
    "405021": "Besnica ",
    "405031": "Besnica šola ",
    "405041": "Blaževo ",
    "405051": "Besnica ambulanta ",
    "405061": "Besnica kamnolom ",
    "405071": "Zg. Besnica ",
    "406011": "Šemnikar ",
    "406021": "Trebeljevo ",
    "406031": "Prežganje ",
    "406041": "Prežganje šola ",
    "406051": "Smrekarjevo ",
    "406061": "Volavlje ",
    "406071": "Lanišče ",
    "406081": "TUJI GRM ",
    "415011": "Sadinja vas ",
    "415021": "Podlipoglav ",
    "415031": "Veliki Lipoglav ",
    "415041": "Selo ",
    "415051": "Pance ",
    "415061": "MALI LIPOGLAV ",
    "415071": "Pri Dogonivar ",
    "415081": "Primožev ovinek ",
    "415091": "Pri Dolencu ",
    "425011": "Javor-2 ",
    "500011": "Tavčarjeva ",
    "501011": "Ilirska ",
    "501021": "Zmajski most ",
    "501031": "Lutkovno gl. ",
    "502011": "Poljanska ",
    "502013": "Ambrožev trg ",
    "502021": "Roška ",
    "502031": "Streliška ",
    "503011": "Strelišče ",
    "503021": "Rakovnik ",
    "503031": "Akademija ",
    "503041": "Peruzzijeva ",
    "503051": "Mihov štradon ",
    "504011": "Gornji Rudnik ",
    "504021": "Spodnji Rudnik ",
    "504031": "RUDNIK ",
    "504033": "Rudnik ",
    "504041": "Jurčkova ",
    "504051": "NS Rudnik ",
    "504061": "NS RUDNIK ",
    "504071": "Pod Hribom ",
    "504081": "Lavrica pri Malči ",
    "504091": "Lavrica ",
    "504101": "Škofljica Petkovšek ",
    "504111": "Škofljica žaga ",
    "504121": "Bobrova ",
    "505011": "Škofljica Javornik ",
    "505021": "Reber pri Škofljici ",
    "505031": "Špilar ",
    "505041": "Mali vrh ",
    "505051": "Razdrto ",
    "505061": "Šmarje ",
    "505071": "Sap ",
    "505081": "Cikava ",
    "505091": "Brvace ",
    "505101": "Stara pošta ",
    "505111": "Pod gozdom ",
    "505141": "Grosuplje ",
    "505143": "GROSUPLJE ",
    "505201": "Knjižnica Grosuplje ",
    "505211": "ZD Grosuplje ",
    "506011": "Grosuplje Motel ",
    "506021": "Višnja Gora ",
    "506031": "St.trg/Višnji G. ",
    "506041": "Podsmreka pri Višnji G. ",
    "507011": "Polževo K ",
    "507021": "M.Hudo ",
    "507031": "Ivančna Gorica ",
    "507041": "Stična KZ ",
    "507051": "Stična K ",
    "507061": "Vir pri Stični ",
    "507071": "Ivančna Gorica ŠC ",
    "507091": "Griže/Stični ",
    "507111": "Šentvid pri Stični ",
    "507141": "Glogovica K ",
    "515011": "Škofljica špica ",
    "515013": "ŠKOFLJICA obrač. ",
    "517031": "Predstruge ",
    "517041": "Videm/Dobrepolju ",
    "526011": "M.Mlačevo ",
    "526021": "Predole K ",
    "526031": "V.Račna ",
    "526041": "M.Račna ",
    "526051": "Čušperk ",
    "526061": "M.Ilova GORA ",
    "527011": "Cesta/Dobrepolju ",
    "527021": "Zdenska vas ",
    "528031": "V. Lese ",
    "528041": "Marinča vas ",
    "528051": "Zagradec/Krki ",
    "528091": "Dečja vas pri Zagradcu ",
    "528101": "Grintovec/Zagradcu ",
    "528111": "Kužljevec K ",
    "528121": "Kal/Ambrusu K ",
    "528131": "Kal/Ambrusu ",
    "528141": "Kamni Vrh ",
    "528151": "Ambrus ",
    "535011": "Perovo ",
    "535021": "M. St. vas ",
    "535031": "V. St. vas ",
    "535041": "Drobnič ",
    "535051": "Troščine ",
    "535061": "Kožljevec ",
    "535071": "Žabja vas ",
    "535081": "Peč pri Polici ",
    "535091": "POLICA/VIŠ. G. ",
    "536031": "Sp. Slivnica ",
    "546011": "Zadvor pri Grosupljem ",
    "546021": "Benat ",
    "546031": "Ponova vas ",
    "546041": "Pece K ",
    "546051": "M. vas pri Grosupljem ",
    "546061": "Št. Jurij ",
    "546071": "V. Lipljene ",
    "546081": "M. Lipljene ",
    "546091": "Škocjan ",
    "556011": "Grosuplje SM ",
    "556031": "V. Mlačevo ŽP ",
    "556041": "Žalna ŽP ",
    "556051": "V. Loka pri Viš. G. ",
    "556101": "V. Mlačevo ",
    "556103": "V. Mlačevo ",
    "567011": "Mrzlo polje ",
    "567021": "Škrjanče/Iv.G. ",
    "567031": "G.vas/Muljavi K ",
    "567041": "Muljava ",
    "567051": "Znojilje K ",
    "567061": "Gabrovčec K ",
    "600011": "Bavarski dvor ",
    "600021": "Ajdovščina ",
    "601011": "Pošta ",
    "602011": "Cankarjev dom ",
    "602021": "Drama ",
    "602031": "Hajdrihova ",
    "602041": "Tobačna ",
    "602051": "Aškerčeva ",
    "602061": "Križanke ",
    "602071": "Mirje ",
    "602093": "Ziherlova ",
    "602101": "Gornji trg ",
    "602111": "Privoz ",
    "602121": "Trnovo ",
    "603011": "Jadranska ",
    "603021": "Gerbičeva ",
    "603031": "Krimska ",
    "603041": "Koprska ",
    "603061": "Murgle ",
    "603071": "Pot na Rakovo jelšo ",
    "603081": "Veliki štradon ",
    "603091": "Livada ",
    "603093": "Galjevica ",
    "603101": "Ilovica ",
    "603111": "Lahova pot ",
    "603121": "Ižanska ",
    "603141": "Tbilisijska ",
    "603151": "Goluhova ",
    "603171": "Opekarska ",
    "603181": "BARJE P+R ",
    "604011": "Iški most ",
    "604023": "Barje ",
    "604031": "MESTNI LOG ",
    "604041": "Havptmance ",
    "604051": "Pri Maranzu ",
    "604061": "Ižica ",
    "605011": "Ig AP ",
    "605021": "Ig mizarstvo ",
    "605031": "Dobravica K ",
    "605041": "Podgozd ",
    "605051": "Škrilje ",
    "605061": "Golo ",
    "605071": "Hrastje pri Golem ",
    "605081": "Ig Petrol ",
    "606011": "Kurešček K ",
    "606031": "Visoko/Kureščkom ",
    "606041": "Zapotok/Kureščkom K ",
    "606051": "ZAPOTOK ",
    "614011": "Plečnikova cerkev ",
    "614021": "Brglezov štradon ",
    "614031": "Dornig ",
    "614041": "Capuder ",
    "614051": "Zidarjevec ",
    "614061": "Rutar ",
    "614071": "Lipe ",
    "614081": "Kozler ",
    "614091": "Snoj ",
    "614101": "Zidarjevec 2 ",
    "614111": "Jurečič ",
    "615011": "Iška Loka ",
    "615021": "Na Gmajni ",
    "615031": "Matena ",
    "615041": "Brest ",
    "615051": "Tomišelj K ",
    "615061": "Tomišelj ",
    "615071": "Tomišelj A ",
    "625011": "Vrbljene ",
    "625021": "Ig ",
    "625031": "Staje ",
    "625041": "Kot ",
    "625051": "Iška vas ",
    "625061": "Iška vas šola ",
    "626011": "IŠKA VAS obrač. ",
    "626021": "Strahomer ",
    "700011": "Gosposvetska ",
    "701011": "Bleiweisova ",
    "702011": "Pod Rožnikom ",
    "702021": "Študentsko naselje ",
    "702031": "Svetčeva ",
    "703011": "Rožna dolina ",
    "703021": "Cesta XV ",
    "703031": "Jamnikarjeva ",
    "703041": "Viško polje ",
    "703051": "Podmornica ",
    "703071": "Stan in dom ",
    "703081": "Glince ",
    "703091": "Vič ",
    "703101": "Bonifacija ",
    "703111": "Dolgi most ",
    "703121": "Živalski vrt-ZOO ",
    "703181": "Večna pot ",
    "703191": "Pot Rdečega križa ",
    "703201": "Ježkova ",
    "703211": "I. Kobilca ",
    "703221": "Cesta na Vrhovce ",
    "704011": "D. MOST P+R ",
    "704023": "Brdo ",
    "704031": "Vrhovci ",
    "704041": "BOKALCE ",
    "704051": "Dolgi most Rotar ",
    "704061": "Na Gmajnici ",
    "704081": "Pri Poku ",
    "704091": "Lukovica pri Brezovici ",
    "704101": "Kozarje ",
    "704141": "Zgornji log ",
    "704151": "Cesta v Gorice ",
    "704181": "Podvozna pot ",
    "705011": "Dragomer ",
    "705021": "Log pri Brez.Mole ",
    "705031": "Log pri Brez.vas ",
    "705041": "Lesno Brdo ",
    "705051": "Drenov Grič ",
    "705061": "Sinja Gorica ",
    "705071": "Sinja Gorica avt. ",
    "705081": "Vrhnika vrt. ",
    "706011": "Vrhnika ",
    "714011": "Kozarje GD ",
    "714021": "Kozarje gmajna ",
    "714031": "Razori Rogovilc ",
    "714041": "Razori K ",
    "715011": "Draževnik ",
    "715021": "Komanija ",
    "715031": "Podsmreka GD ",
    "715041": "Podsmreka Rotar ",
    "715051": "Podsmreka pri Gorjancu ",
    "715061": "Dobrova graben ",
    "715071": "Dobrova vodomet ",
    "715081": "Dobrova Maček ",
    "715091": "Dobrova Skodlar ",
    "715101": "Brezje pri Dobrovi And. ",
    "715111": "Brezje pri Dobrovi ",
    "715121": "Podolnica ",
    "715131": "Zaklanec/Horjulu ",
    "716011": "Horjul ",
    "716021": "Ljubgojna ",
    "716031": "Žažar ",
    "716041": "Vrzdenec ",
    "716051": "ŠENTJOŠT ",
    "725011": "Dobrova ",
    "725013": "Dobrova ",
    "725021": "Šuica ",
    "725031": "Gaberje pri Dobrovi ",
    "725041": "Gaberje pri Dob.Brvičar ",
    "725051": "Hruševo ",
    "725061": "Žirovnik ",
    "725071": "Hrastenice ",
    "725081": "Log pri Polh.G. ",
    "725091": "Belica ",
    "725101": "Dvor pri Polh.G. ",
    "725111": "D.vas pri Polh.G. ",
    "725121": "Podreber/Polh.G. ",
    "725131": "Sr.vas pri Polh.G. ",
    "726011": "POLHOV GRADEC ",
    "726021": "Briše pri Polh.G. ",
    "726031": "Briše pri Polh.G.Koroš. ",
    "726041": "Briše pri Polh.G.M.Voda ",
    "726051": "Butajnova Setnik ",
    "726061": "Butajnova Čamernik ",
    "726071": "Butajnova ",
    "727011": "Kurja vas/Šentjoštu ",
    "727021": "Suhi Dol/Planino ",
    "736011": "Mačkov graben ",
    "736021": "Petačev graben ",
    "736031": "Smolnik žaga ",
    "736041": "Smolnik Zalog ",
    "736051": "Smolnik Setnik ",
    "737011": "Smolnik Praprotnik ",
    "737021": "Smolnik nad Hribom ",
    "737031": "Črni Vrh nad Vrhovci ",
    "737041": "ČRNI VRH ",
    "744011": "Šolska ",
    "744021": "Japelj ",
    "745021": "Erbežnik ",
    "745031": "Mostiček ",
    "745043": "NOT. GORICE ",
    "745051": "Podpeč ",
    "745061": "JEZERO ",
    "745101": "OŠ Jezero ",
    "745111": "Podpeč 1 ",
    "776011": "Vrhnika samop. ",
    "776021": "Vrhnika Voljč. ",
    "801011": "Tivoli ",
    "802011": "Stara cerkev ",
    "802021": "Kino Šiška ",
    "802031": "Na jami ",
    "802041": "Bolnica P. Držaja ",
    "802051": "Drenikova ",
    "802061": "Tiki ",
    "803011": "Slovenija avto ",
    "803021": "Avtomontaža ",
    "803031": "Kompas ",
    "803041": "Dravlje ",
    "803051": "Litostrojska ",
    "803053": "LITOSTROJSKA ",
    "803061": "Ljubljanske brigade ",
    "803071": "Tehnounion ",
    "803081": "Kneza Koclja ",
    "803091": "Zgornja Šiška ",
    "803101": "Tržnica Koseze ",
    "803111": "Čebelarska ",
    "803121": "Plešičeva ",
    "803131": "Bratov Učakar ",
    "803141": "Koseze ",
    "803151": "Draveljska gmajna ",
    "803161": "Bratov Babnik ",
    "803171": "Spar ",
    "803181": "KAMNA GORICA ",
    "803211": "Kovinarska ",
    "803221": "Draga ",
    "804011": "Trata ",
    "804021": "Prušnikova ",
    "804031": "Podgora ",
    "804041": "Šentvid ",
    "804051": "VIŽMARJE ",
    "804061": "Stanežiče ",
    "804071": "Medno ",
    "804081": "Kosmačeva ",
    "804091": "Na klancu ",
    "804101": "Tabor ",
    "804111": "Ob daljnovodu ",
    "804121": "Brod ",
    "804131": "Martinova ",
    "804141": "Tacenski most ",
    "804151": "Tacen ",
    "804161": "IMP ",
    "804171": "Andreja Bitenca ",
    "804181": "PRŽAN ",
    "804191": "Pod Kamno gorico ",
    "804193": "Pod Kamno Gorico ",
    "804201": "Omersova ",
    "804211": "Murkova ",
    "804221": "PODUTIK ",
    "804341": "Oval ",
    "804351": "Dvor ",
    "804361": "STANEŽIČE nas. ",
    "804381": "Zapuže ",
    "804391": "Kamnogoriška ",
    "804401": "Dolnice ",
    "804411": "Krivec ",
    "805011": "Medvoška a.p. ",
    "805021": "Medvode ",
    "805023": "MEDVODE ",
    "805031": "Novo naselje ",
    "805041": "MEDVODE nas. ",
    "805061": "Zbiljski Gaj ",
    "805071": "Zbilje K ",
    "805081": "Zbilje jezero ",
    "815011": "Vikrče ",
    "815021": "Sp. Pirniče ",
    "815031": "KS. Pirniče ",
    "815041": "ZG. Pirniče ",
    "815091": "Valburga ",
    "815101": "Gostilna Kovač ",
    "815111": "Kajakaška ",
    "815121": "Smlednik šola ",
    "815131": "Hraše zahod ",
    "815141": "Zavrh ",
    "815151": "Preska ",
    "815181": "Vaše ",
    "815191": "Goričane pod gradom ",
    "815201": "Goričane kopališče ",
    "815211": "Rakovnik pri Sori ",
    "816011": "Hraše center ",
    "816021": "Hraše vzhod ",
    "816041": "Sora ",
    "816051": "SORA obrač. ",
    "825011": "Povodje ",
    "825021": "Skaručna ",
    "825031": "Polje obračališče ",
    "825041": "Repnje Benk ",
    "825051": "Repnje samostan ",
    "825061": "Repnje kapelica ",
    "825071": "Dobruša lipa ",
    "825081": "Zapoge ",
    "825111": "Zapoge obračališče ",
    "826011": "VODICE ",
    "826021": "Bukovica Plevevc ",
    "826031": "Bukovica Anzel ",
    "826041": "Utik ",
    "826051": "Selo pri Vodicah ",
    "826061": "Vesca ",
    "826081": "Vojsko ",
    "826091": "Vodice OŠ ",
    "826101": "Selo Mali Dunaj ",
    "826111": "Koseze ",
    "826121": "Koseze Stare ",
    "826131": "Šinkov Turn ",
    "826141": "Šinkov Turn hrib ",
    "835011": "Verje ",
    "835031": "Svetje ",
    "999091": "Vrhnika OŠ AM Slomška "
}